^C:\USERS\JOSHVAL\DESKTOP\URL\PROGRAAVPRACTICA\PROGRAAVANZADA2019\PILASCOLASIMPLEMENTACIONEJEMPLOCLR\APP.RC
C:\USERS\JOSHVAL\DESKTOP\URL\PROGRAAVPRACTICA\PROGRAAVANZADA2019\PILASCOLASIMPLEMENTACIONEJEMPLOCLR\RESOURCE.H
C:\USERS\JOSHVAL\DESKTOP\URL\PROGRAAVPRACTICA\PROGRAAVANZADA2019\PILASCOLASIMPLEMENTACIONEJEMPLOCLR\APP.ICO
